<svg id="_4RSLH8" data-name="4RSLH8" xmlns="http://www.w3.org/2000/svg" width="73.77" height="88.843" viewBox="0 0 73.77 88.843">
  <g id="Group_34" data-name="Group 34" transform="translate(0 0)">
    <path id="Path_61" data-name="Path 61" d="M769.467,593.506a49.29,49.29,0,0,1-7.2,13.943,53.281,53.281,0,0,1-4.546,5.468c-3.9,4.056-8.556,4.788-13.71,2.776-3.536-1.38-7.1-2.8-10.976-2.2a34.962,34.962,0,0,0-7.112,1.871c-4.756,1.829-9.309,2.522-13.425-1.329a45.825,45.825,0,0,1-3.989-4.217,56.589,56.589,0,0,1-11.139-21.99c-2.081-7.921-2.559-15.924.532-23.715,3.136-7.9,8.876-12.953,17.362-14.476,3.764-.676,7.416.2,10.946,1.571,1.127.439,2.283.805,3.4,1.258a10.019,10.019,0,0,0,7.338-.1c3.51-1.206,7.08-2.625,10.72-2.981,7.44-.728,13.94,1.641,18.826,7.61a7.114,7.114,0,0,1,.5.865c-6.688,4.363-10.149,10.414-9.583,18.484C757.983,584.385,762.5,589.7,769.467,593.506Z" transform="translate(-695.696 -527.997)" fill="#5b3f91"/>
    <path id="Path_62" data-name="Path 62" d="M841.065,476.185a16.743,16.743,0,0,1-2.218,10.5c-2.456,4.339-5.775,7.771-10.6,9.459a16.477,16.477,0,0,1-2.832.617c-1.7.272-1.976.009-1.945-1.706.14-7.681,6-15.414,13.584-17.871C838.321,476.775,839.646,476.534,841.065,476.185Z" transform="translate(-786.285 -476.185)" fill="#5b3f91"/>
  </g>
</svg>
