<svg id="bfEtEo" xmlns="http://www.w3.org/2000/svg" width="123.775" height="52.403" viewBox="0 0 123.775 52.403">
  <g id="Group_29" data-name="Group 29" transform="translate(0 0)">
    <path id="Path_38" data-name="Path 38" d="M737.894,419.983c.791.136,1.589.24,2.371.416a9,9,0,0,1,5.092,2.816,7.453,7.453,0,0,1,1.713,4.44c.03.411.031.825.031,1.237q0,21.249,0,42.5v.653h-6.4V455.085H732.32v16.966h-6.442c-.008-.174-.022-.354-.022-.534q0-21.4,0-42.808a9.477,9.477,0,0,1,.553-3.439,7.523,7.523,0,0,1,5.139-4.538,31.175,31.175,0,0,1,3.169-.655c.132-.027.261-.062.392-.093Zm2.774,28.979v-.568q0-3.531,0-7.061c0-3.934.007-7.869,0-11.8a2.886,2.886,0,0,0-2.461-3.143,8.333,8.333,0,0,0-2.7-.149c-2.337.285-3.2,1.353-3.2,3.711q0,9.175-.007,18.349v.665Z" transform="translate(-674.666 -419.983)" fill="#5b3f91"/>
    <path id="Path_39" data-name="Path 39" d="M229.67,545.973q5.439.009,10.878.019a9.415,9.415,0,0,1,3.866.748,7.657,7.657,0,0,1,4.287,5,15.1,15.1,0,0,1,.156,8.489,7.118,7.118,0,0,1-2.741,4c-.136.1-.268.206-.4.307.031.054.04.091.064.105a7.865,7.865,0,0,1,3.752,6.037,17.849,17.849,0,0,1-.592,8.454,8.181,8.181,0,0,1-8.238,5.933c-3.678.015-7.356,0-11.034,0Zm6.47,33.068c1.333,0,2.6.036,3.871-.01a2.829,2.829,0,0,0,2.739-2.123,11.129,11.129,0,0,0,.192-6.394,2.881,2.881,0,0,0-2.521-2.4c-1.408-.126-2.835-.028-4.281-.028Zm.01-26.972v9.906c1.138,0,2.236-.01,3.335,0a2.679,2.679,0,0,0,2.628-1.574,8.467,8.467,0,0,0,.694-2.453,7.754,7.754,0,0,0-.449-4,2.626,2.626,0,0,0-2.213-1.855C238.831,551.992,237.5,552.069,236.15,552.069Z" transform="translate(-229.67 -532.975)" fill="#5b3f91"/>
    <path id="Path_40" data-name="Path 40" d="M1002.216,585.769c-.925-.241-1.873-.419-2.771-.737a7.124,7.124,0,0,1-4.691-4.17,8.167,8.167,0,0,1-.487-2.763c-.033-10.4-.021-20.8-.02-31.2,0-.152.014-.3.024-.492h6.4v.657q0,14.825,0,29.65a2.637,2.637,0,0,0,2.631,2.983,5.263,5.263,0,0,0,1.534-.051,2.565,2.565,0,0,0,2.258-2.843q0-14.851,0-29.7v-.7h6.451v.63c0,10.21-.041,20.42.02,30.63a7.224,7.224,0,0,1-5.276,7.371c-.9.316-1.85.491-2.778.73Z" transform="translate(-915.367 -533.366)" fill="#5b3f91"/>
    <path id="Path_41" data-name="Path 41" d="M1262.77,581.959h-6.3v-.633q0-14.829,0-29.657a2.727,2.727,0,0,0-2.913-3.043,5.34,5.34,0,0,0-1.13.048,2.584,2.584,0,0,0-2.376,2.849q0,14.854,0,29.709v.7H1243.6v-.62q0-15.344,0-30.689a6.982,6.982,0,0,1,4.833-7.152,12.566,12.566,0,0,1,10.4.342,6.738,6.738,0,0,1,3.858,4.506c.011.044.057.08.087.119Z" transform="translate(-1138.995 -529.865)" fill="#5b3f91"/>
    <path id="Path_42" data-name="Path 42" d="M483.486,568.279v16.932h-6.42V546.155h10.546c5,0,8.067,2.574,8.875,7.514a15.148,15.148,0,0,1-.352,6.989,7.146,7.146,0,0,1-2.713,3.784c-.109.079-.211.167-.353.28a1.609,1.609,0,0,0,.207.166,6.141,6.141,0,0,1,3.228,5.349c.089,1.163.1,2.334.106,3.5.013,3.627,0,7.254,0,10.881v.586H490.12v-.584c0-3.747.026-7.495-.018-11.242a11.513,11.513,0,0,0-.393-2.942,2.756,2.756,0,0,0-3.08-2.238c-1,0-1.993.007-2.99.012C483.609,568.211,483.579,568.237,483.486,568.279Zm.027-6.141c1.1,0,2.161-.023,3.222.006a2.859,2.859,0,0,0,2.936-1.924,8.327,8.327,0,0,0,.015-6.186,2.42,2.42,0,0,0-2-1.739c-1.373-.115-2.763-.029-4.168-.029Z" transform="translate(-451.544 -533.138)" fill="#5b3f91"/>
  </g>
</svg>
