<svg xmlns="http://www.w3.org/2000/svg" width="34" height="35" viewBox="0 0 34 35">
  <g id="Group_10" data-name="Group 10" transform="translate(0.211 0.02)">
    <ellipse id="Ellipse_10" data-name="Ellipse 10" cx="17" cy="17.5" rx="17" ry="17.5" transform="translate(-0.211 -0.02)" fill="#5b3f91"/>
    <g id="ttTDKX" transform="translate(7.786 10.35)">
      <g id="Group_10-2" data-name="Group 10" transform="translate(0 0)">
        <path id="Path_17" data-name="Path 17" d="M-69.931,59.969h-.057c-.035-.043-.068-.089-.107-.129L-75.135,54.8c-.847-.847-1.714-1.675-2.532-2.549a5.282,5.282,0,0,1-1.384-5.015,5.5,5.5,0,0,1,8.966-2.969l.13.11.062-.052a5.463,5.463,0,0,1,4.682-1.378,5.518,5.518,0,0,1,4.463,4.347c.046.251.078.5.116.756V48.7c-.01.046-.021.091-.028.137-.035.234-.055.472-.1.7A5.7,5.7,0,0,1-62.4,52.437q-3.723,3.706-7.432,7.427C-69.869,59.9-69.9,59.934-69.931,59.969Z" transform="translate(79.205 -42.866)" fill="#fff"/>
      </g>
    </g>
  </g>
</svg>
